Methane and short-chain alkane C isotope data processing for samples obtained in Oman in 2017
…
Data processed using the packages isoreader version 1.1.1 and isoprocessor version 0.6.1.

3 Load Data

# read files
iso_files_raw <- 
  file.path(
    "data_raw/OM17_CH4_C2-C6_data", "OM17_CH4_C2-C6_data.cf.rds"
  ) %>% 
    # read data files in parallel for fast read
  iso_read_continuous_flow(parallel = TRUE)

## # A tibble: 88 x 4
##    file_id             type    func     details                                 
##    <chr>               <chr>   <chr>    <chr>                                   
##  1 810__H-ISO1_splitl warning iso_rea file created by a different version of 
##  2 810__H-ISO1_splitl warning iso_rea file created by a different version of 
##  3 811__H-ISO1_splitl warning iso_rea file created by a different version of 
##  4 811__H-ISO1_splitl warning iso_rea file created by a different version of 
##  5 812__H-ISO1_splitl warning iso_rea file created by a different version of 
##  6 812__H-ISO1_splitl warning iso_rea file created by a different version of 
##  7 813__H-ISO1_splitl warning iso_rea file created by a different version of 
##  8 813__H-ISO1_splitl warning iso_rea file created by a different version of 
##  9 814__H-ISO1_splitl warning iso_rea file created by a different version of 
## 10 814__H-ISO1_splitl warning iso_rea file created by a different version of 
## #  with 78 more rows
…
